<svg xmlns="http://www.w3.org/2000/svg" xmlns:xlink="http://www.w3.org/1999/xlink" width="24" height="24" viewBox="0 0 24 24">
  <defs>
    <clipPath id="clip-path">
      <rect id="Rectangle_1601" data-name="Rectangle 1601" width="24" height="24" transform="translate(1252 37)" fill="#fff" stroke="#707070" stroke-width="1"/>
    </clipPath>
  </defs>
  <g id="Mask_Group_47" data-name="Mask Group 47" transform="translate(-1252 -37)" clip-path="url(#clip-path)">
    <path id="shopping-bag" d="M26.395,12.639H24.331v-.96a7.68,7.68,0,0,0-15.359,0v.96H6.908L5.63,28H27.679Zm-15.023-.96a5.28,5.28,0,1,1,10.559,0v.96H11.372ZM8.234,25.6l.882-10.559H24.187L25.069,25.6Z" transform="translate(1247.87 33)" fill="#d81a1e" stroke="#fff" stroke-width="0.5"/>
  </g>
</svg>
