<svg xmlns="http://www.w3.org/2000/svg" xmlns:xlink="http://www.w3.org/1999/xlink" width="24" height="24" viewBox="0 0 24 24">
  <defs>
    <clipPath id="clip-path">
      <rect id="Rectangle_1600" data-name="Rectangle 1600" width="24" height="24" transform="translate(-879 2529)" fill="#fff" stroke="#707070" stroke-width="1"/>
    </clipPath>
  </defs>
  <g id="Mask_Group_46" data-name="Mask Group 46" transform="translate(879 -2529)" clip-path="url(#clip-path)">
    <g id="Layer_2" data-name="Layer 2" transform="translate(-854.227 2553.724) rotate(180)">
      <path id="log-out" d="M8.181,6.091A1.045,1.045,0,0,0,8.181,4H5.045A1.045,1.045,0,0,0,4,5.045V19.679a1.045,1.045,0,0,0,1.045,1.045H8.181a1.045,1.045,0,0,0,0-2.091H6.091V6.091Zm13.4,5.665L18.634,7.575a1.046,1.046,0,1,0-1.7,1.213l1.8,2.53H10.272a1.045,1.045,0,1,0,0,2.091h8.362l-1.881,2.509a1.045,1.045,0,0,0,1.672,1.254l3.136-4.181a1.045,1.045,0,0,0,.021-1.233Z" fill="#d81a1e"/>
    </g>
  </g>
</svg>
